LAB 4 - PARTE 2
…
## # A tibble: 1 x 11
##   r.squared adj.r.squared  sigma statistic  p.value    df logLik   AIC
##       <dbl>         <dbl>  <dbl>     <dbl>    <dbl> <int>  <dbl> <dbl>
## 1     0.942         0.940 0.0377      447. 6.81e-99     7   322. -627.
## # ... with 3 more variables: BIC <dbl>, deviance <dbl>, df.residual <int>

Anlise Descritiva dos Pases Classificados como frica Sub Sariana

## # A tibble: 47 x 15
##       ID pais  regiao rank_liberdade rank_liberdade_~ liberdade_empre~
##    <dbl> <chr> <chr>           <dbl>            <dbl>            <dbl>
##  1     4 Ango~ Sub-S~            156               33             55.7
##  2    17 Benin Sub-S~            127               21             62.4
##  3    21 Bots~ Sub-S~             36                3             68.7
##  4    24 Burk~ Sub-S~             96                9             51.6
##  5    26 Buru~ Sub-S~            162               39             50.3
##  6    28 Came~ Sub-S~            145               29             44.4
##  7    30 Cabo~ Sub-S~             73                4             65.2
##  8    31 Cent~ Sub-S~            161               38             24.2
##  9    32 Chad  Sub-S~            159               36             28.1
## 10    36 Como~ Sub-S~            124               20             57.2
## # ... with 37 more rows, and 9 more variables: liberdade_trabalho <dbl>,
## #   liberdade_monetaria <dbl>, pib_per_capita <dbl>, idh <dbl>,
## #   rank_idh <dbl>, expectativa_vida <dbl>,
## #   expectativa_media_estudos <dbl>, pred <dbl>, resid <dbl>

## # A tibble: 47 x 15
##       ID pais  regiao rank_liberdade rank_liberdade_~ liberdade_empre~
##    <dbl> <chr> <chr>           <dbl>            <dbl>            <dbl>
##  1     4 Ango~ Sub-S~            156               33             55.7
##  2    17 Benin Sub-S~            127               21             62.4
##  3    21 Bots~ Sub-S~             36                3             68.7
##  4    24 Burk~ Sub-S~             96                9             51.6
##  5    26 Buru~ Sub-S~            162               39             50.3
##  6    28 Came~ Sub-S~            145               29             44.4
##  7    30 Cabo~ Sub-S~             73                4             65.2
##  8    31 Cent~ Sub-S~            161               38             24.2
##  9    32 Chad  Sub-S~            159               36             28.1
## 10    36 Como~ Sub-S~            124               20             57.2
## # ... with 37 more rows, and 9 more variables: liberdade_trabalho <dbl>,
## #   liberdade_monetaria <dbl>, pib_per_capita <dbl>, idh <dbl>,
## #   rank_idh <dbl>, expectativa_vida <dbl>,
## #   expectativa_media_estudos <dbl>, pred <dbl>, resid <dbl>
